%YAML 1.1
%TAG !u! tag:unity3d.com,2011:
--- !u!1 &6738533008220503001
GameObject:
  m_ObjectHideFlags: 0
  m_CorrespondingSourceObject: {fileID: 0}
  m_PrefabInstance: {fileID: 0}
  m_PrefabAsset: {fileID: 0}
  serializedVersion: 6
  m_Component:
  - component: {fileID: 6738533008220502999}
  - component: {fileID: 6738533008220502998}
  m_Layer: 0
  m_Name: CM vcam1
  m_TagString: Untagged
  m_Icon: {fileID: 0}
  m_NavMeshLayer: 0
  m_StaticEditorFlags: 0
  m_IsActive: 1
--- !u!4 &6738533008220502999
Transform:
  m_ObjectHideFlags: 0
  m_CorrespondingSourceObject: {fileID: 0}
  m_PrefabInstance: {fileID: 0}
  m_PrefabAsset: {fileID: 0}
  m_GameObject: {fileID: 6738533008220503001}
  m_LocalRotation: {x: 0, y: 0, z: 0, w: 1}
  m_LocalPosition: {x: -0.9899998, y: -1.5376954, z: -10}
  m_LocalScale: {x: 1, y: 1, z: 1}
  m_Children:
  - {fileID: 6738533008233634397}
  - {fileID: 5924074797432415448}
  m_Father: {fileID: 0}
  m_RootOrder: 0
  m_LocalEulerAnglesHint: {x: 0, y: 0, z: 0}
--- !u!114 &6738533008220502998
MonoBehaviour:
  m_ObjectHideFlags: 0
  m_CorrespondingSourceObject: {fileID: 0}
  m_PrefabInstance: {fileID: 0}
  m_PrefabAsset: {fileID: 0}
  m_GameObject: {fileID: 6738533008220503001}
  m_Enabled: 1
  m_EditorHideFlags: 0
  m_Script: {fileID: 11500000, guid: 45e653bab7fb20e499bda25e1b646fea, type: 3}
  m_Name: 
  m_EditorClassIdentifier: 
  m_ExcludedPropertiesInInspector:
  - m_Script
  m_LockStageInInspector: 
  m_StreamingVersion: 20170927
  m_Priority: 10
  m_StandbyUpdate: 2
  m_LookAt: {fileID: 0}
  m_Follow: {fileID: 0}
  m_Lens:
    FieldOfView: 60
    OrthographicSize: 10
    NearClipPlane: 0.3
    FarClipPlane: 1000.63
    Dutch: 0
    ModeOverride: 0
    LensShift: {x: 0, y: 0}
    GateFit: 2
    m_SensorSize: {x: 1.7777778, y: 1}
  m_Transitions:
    m_BlendHint: 0
    m_InheritPosition: 0
    m_OnCameraLive:
      m_PersistentCalls:
        m_Calls: []
  m_LegacyBlendHint: 0
  m_ComponentOwner: {fileID: 6738533008233634397}
--- !u!1 &6738533008233634396
GameObject:
  m_ObjectHideFlags: 0
  m_CorrespondingSourceObject: {fileID: 0}
  m_PrefabInstance: {fileID: 0}
  m_PrefabAsset: {fileID: 0}
  serializedVersion: 6
  m_Component:
  - component: {fileID: 6738533008233634397}
  - component: {fileID: 6738533008233634392}
  - component: {fileID: 6738533008233634395}
  - component: {fileID: 1540582382}
  m_Layer: 0
  m_Name: cm
  m_TagString: Untagged
  m_Icon: {fileID: 0}
  m_NavMeshLayer: 0
  m_StaticEditorFlags: 0
  m_IsActive: 1
--- !u!4 &6738533008233634397
Transform:
  m_ObjectHideFlags: 0
  m_CorrespondingSourceObject: {fileID: 0}
  m_PrefabInstance: {fileID: 0}
  m_PrefabAsset: {fileID: 0}
  m_GameObject: {fileID: 6738533008233634396}
  m_LocalRotation: {x: -0, y: -0, z: -0, w: 1}
  m_LocalPosition: {x: -0.8975849, y: -0.86467, z: 54.688236}
  m_LocalScale: {x: 1, y: 1, z: 1}
  m_Children: []
  m_Father: {fileID: 6738533008220502999}
  m_RootOrder: 0
  m_LocalEulerAnglesHint: {x: 0, y: 0, z: 0}
--- !u!114 &6738533008233634392
MonoBehaviour:
  m_ObjectHideFlags: 0
  m_CorrespondingSourceObject: {fileID: 0}
  m_PrefabInstance: {fileID: 0}
  m_PrefabAsset: {fileID: 0}
  m_GameObject: {fileID: 6738533008233634396}
  m_Enabled: 1
  m_EditorHideFlags: 0
  m_Script: {fileID: 11500000, guid: ac0b09e7857660247b1477e93731de29, type: 3}
  m_Name: 
  m_EditorClassIdentifier: 
--- !u!114 &6738533008233634395
MonoBehaviour:
  m_ObjectHideFlags: 0
  m_CorrespondingSourceObject: {fileID: 0}
  m_PrefabInstance: {fileID: 0}
  m_PrefabAsset: {fileID: 0}
  m_GameObject: {fileID: 6738533008233634396}
  m_Enabled: 1
  m_EditorHideFlags: 0
  m_Script: {fileID: 11500000, guid: f4044717213e31446939f7bd49c896ea, type: 3}
  m_Name: 
  m_EditorClassIdentifier: 
  m_TrackedObjectOffset: {x: 0, y: 0, z: 0}
  m_LookaheadTime: 0.45
  m_LookaheadSmoothing: 0
  m_LookaheadIgnoreY: 0
  m_HorizontalDamping: 0.5
  m_VerticalDamping: 0.5
  m_ScreenX: 0.5
  m_ScreenY: 0.5
  m_DeadZoneWidth: 0
  m_DeadZoneHeight: 0
  m_SoftZoneWidth: 0.8
  m_SoftZoneHeight: 0.8
  m_BiasX: 0
  m_BiasY: 0
  m_CenterOnActivate: 1
--- !u!114 &1540582382
MonoBehaviour:
  m_ObjectHideFlags: 0
  m_CorrespondingSourceObject: {fileID: 0}
  m_PrefabInstance: {fileID: 0}
  m_PrefabAsset: {fileID: 0}
  m_GameObject: {fileID: 6738533008233634396}
  m_Enabled: 1
  m_EditorHideFlags: 0
  m_Script: {fileID: 11500000, guid: 6ad980451443d70438faac0bc6c235a0, type: 3}
  m_Name: 
  m_EditorClassIdentifier: 
  m_TrackedObjectOffset: {x: 0, y: 0, z: 0}
  m_LookaheadTime: 0
  m_LookaheadSmoothing: 0
  m_LookaheadIgnoreY: 0
  m_XDamping: 1
  m_YDamping: 1
  m_ZDamping: 1
  m_TargetMovementOnly: 1
  m_ScreenX: 0.5
  m_ScreenY: 0.66
  m_CameraDistance: 10
  m_DeadZoneWidth: 0
  m_DeadZoneHeight: 0
  m_DeadZoneDepth: 0
  m_UnlimitedSoftZone: 0
  m_SoftZoneWidth: 0.8
  m_SoftZoneHeight: 0.8
  m_BiasX: 0
  m_BiasY: 0
  m_CenterOnActivate: 1
  m_GroupFramingMode: 2
  m_AdjustmentMode: 0
  m_GroupFramingSize: 0.8
  m_MaxDollyIn: 5000
  m_MaxDollyOut: 5000
  m_MinimumDistance: 1
  m_MaximumDistance: 5000
  m_MinimumFOV: 3
  m_MaximumFOV: 60
  m_MinimumOrthoSize: 1
  m_MaximumOrthoSize: 5000
--- !u!1001 &6738533008610250064
PrefabInstance:
  m_ObjectHideFlags: 0
  serializedVersion: 2
  m_Modification:
    m_TransformParent: {fileID: 6738533008220502999}
    m_Modifications:
    - target: {fileID: 1131140959044168072, guid: 97f3dcccc56a81c4bb93d01ca3705e1f, type: 3}
      propertyPath: m_Pivot.x
      value: 0
      objectReference: {fileID: 0}
    - target: {fileID: 1131140959044168072, guid: 97f3dcccc56a81c4bb93d01ca3705e1f, type: 3}
      propertyPath: m_Pivot.y
      value: 0
      objectReference: {fileID: 0}
    - target: {fileID: 1131140959044168072, guid: 97f3dcccc56a81c4bb93d01ca3705e1f, type: 3}
      propertyPath: m_RootOrder
      value: 1
      objectReference: {fileID: 0}
    - target: {fileID: 1131140959044168072, guid: 97f3dcccc56a81c4bb93d01ca3705e1f, type: 3}
      propertyPath: m_AnchorMax.x
      value: 0
      objectReference: {fileID: 0}
    - target: {fileID: 1131140959044168072, guid: 97f3dcccc56a81c4bb93d01ca3705e1f, type: 3}
      propertyPath: m_AnchorMax.y
      value: 0
      objectReference: {fileID: 0}
    - target: {fileID: 1131140959044168072, guid: 97f3dcccc56a81c4bb93d01ca3705e1f, type: 3}
      propertyPath: m_AnchorMin.x
      value: 0
      objectReference: {fileID: 0}
    - target: {fileID: 1131140959044168072, guid: 97f3dcccc56a81c4bb93d01ca3705e1f, type: 3}
      propertyPath: m_AnchorMin.y
      value: 0
      objectReference: {fileID: 0}
    - target: {fileID: 1131140959044168072, guid: 97f3dcccc56a81c4bb93d01ca3705e1f, type: 3}
      propertyPath: m_SizeDelta.x
      value: 0
      objectReference: {fileID: 0}
    - target: {fileID: 1131140959044168072, guid: 97f3dcccc56a81c4bb93d01ca3705e1f, type: 3}
      propertyPath: m_SizeDelta.y
      value: 0
      objectReference: {fileID: 0}
    - target: {fileID: 1131140959044168072, guid: 97f3dcccc56a81c4bb93d01ca3705e1f, type: 3}
      propertyPath: m_LocalScale.x
      value: 0
      objectReference: {fileID: 0}
    - target: {fileID: 1131140959044168072, guid: 97f3dcccc56a81c4bb93d01ca3705e1f, type: 3}
      propertyPath: m_LocalScale.y
      value: 0
      objectReference: {fileID: 0}
    - target: {fileID: 1131140959044168072, guid: 97f3dcccc56a81c4bb93d01ca3705e1f, type: 3}
      propertyPath: m_LocalScale.z
      value: 0
      objectReference: {fileID: 0}
    - target: {fileID: 1131140959044168072, guid: 97f3dcccc56a81c4bb93d01ca3705e1f, type: 3}
      propertyPath: m_LocalPosition.x
      value: 0
      objectReference: {fileID: 0}
    - target: {fileID: 1131140959044168072, guid: 97f3dcccc56a81c4bb93d01ca3705e1f, type: 3}
      propertyPath: m_LocalPosition.y
      value: 0
      objectReference: {fileID: 0}
    - target: {fileID: 1131140959044168072, guid: 97f3dcccc56a81c4bb93d01ca3705e1f, type: 3}
      propertyPath: m_LocalPosition.z
      value: 0
      objectReference: {fileID: 0}
    - target: {fileID: 1131140959044168072, guid: 97f3dcccc56a81c4bb93d01ca3705e1f, type: 3}
      propertyPath: m_LocalRotation.w
      value: 1
      objectReference: {fileID: 0}
    - target: {fileID: 1131140959044168072, guid: 97f3dcccc56a81c4bb93d01ca3705e1f, type: 3}
      propertyPath: m_LocalRotation.x
      value: 0
      objectReference: {fileID: 0}
    - target: {fileID: 1131140959044168072, guid: 97f3dcccc56a81c4bb93d01ca3705e1f, type: 3}
      propertyPath: m_LocalRotation.y
      value: 0
      objectReference: {fileID: 0}
    - target: {fileID: 1131140959044168072, guid: 97f3dcccc56a81c4bb93d01ca3705e1f, type: 3}
      propertyPath: m_LocalRotation.z
      value: 0
      objectReference: {fileID: 0}
    - target: {fileID: 1131140959044168072, guid: 97f3dcccc56a81c4bb93d01ca3705e1f, type: 3}
      propertyPath: m_AnchoredPosition.x
      value: 0
      objectReference: {fileID: 0}
    - target: {fileID: 1131140959044168072, guid: 97f3dcccc56a81c4bb93d01ca3705e1f, type: 3}
      propertyPath: m_AnchoredPosition.y
      value: 0
      objectReference: {fileID: 0}
    - target: {fileID: 1131140959044168072, guid: 97f3dcccc56a81c4bb93d01ca3705e1f, type: 3}
      propertyPath: m_LocalEulerAnglesHint.x
      value: 0
      objectReference: {fileID: 0}
    - target: {fileID: 1131140959044168072, guid: 97f3dcccc56a81c4bb93d01ca3705e1f, type: 3}
      propertyPath: m_LocalEulerAnglesHint.y
      value: 0
      objectReference: {fileID: 0}
    - target: {fileID: 1131140959044168072, guid: 97f3dcccc56a81c4bb93d01ca3705e1f, type: 3}
      propertyPath: m_LocalEulerAnglesHint.z
      value: 0
      objectReference: {fileID: 0}
    - target: {fileID: 1131140959044168074, guid: 97f3dcccc56a81c4bb93d01ca3705e1f, type: 3}
      propertyPath: m_PresetInfoIsWorld
      value: 0
      objectReference: {fileID: 0}
    - target: {fileID: 1131140959044168075, guid: 97f3dcccc56a81c4bb93d01ca3705e1f, type: 3}
      propertyPath: m_Camera
      value: 
      objectReference: {fileID: 0}
    - target: {fileID: 1131140959044168075, guid: 97f3dcccc56a81c4bb93d01ca3705e1f, type: 3}
      propertyPath: m_RenderMode
      value: 1
      objectReference: {fileID: 0}
    - target: {fileID: 1131140959044168075, guid: 97f3dcccc56a81c4bb93d01ca3705e1f, type: 3}
      propertyPath: m_SortingLayerID
      value: 656177259
      objectReference: {fileID: 0}
    - target: {fileID: 1131140959044168076, guid: 97f3dcccc56a81c4bb93d01ca3705e1f, type: 3}
      propertyPath: m_Name
      value: UI
      objectReference: {fileID: 0}
    - target: {fileID: 1131140959044168076, guid: 97f3dcccc56a81c4bb93d01ca3705e1f, type: 3}
      propertyPath: m_IsActive
      value: 1
      objectReference: {fileID: 0}
    - target: {fileID: 1131140959341093736, guid: 97f3dcccc56a81c4bb93d01ca3705e1f, type: 3}
      propertyPath: m_AnchorMax.x
      value: 0
      objectReference: {fileID: 0}
    - target: {fileID: 1131140959341093736, guid: 97f3dcccc56a81c4bb93d01ca3705e1f, type: 3}
      propertyPath: m_AnchorMax.y
      value: 0
      objectReference: {fileID: 0}
    - target: {fileID: 1131140959341093736, guid: 97f3dcccc56a81c4bb93d01ca3705e1f, type: 3}
      propertyPath: m_SizeDelta.x
      value: -7.7292
      objectReference: {fileID: 0}
    - target: {fileID: 1131140959341093736, guid: 97f3dcccc56a81c4bb93d01ca3705e1f, type: 3}
      propertyPath: m_SizeDelta.y
      value: -5.7969
      objectReference: {fileID: 0}
    - target: {fileID: 1131140959341093736, guid: 97f3dcccc56a81c4bb93d01ca3705e1f, type: 3}
      propertyPath: m_AnchoredPosition.x
      value: -3.8645935
      objectReference: {fileID: 0}
    - target: {fileID: 1131140959341093736, guid: 97f3dcccc56a81c4bb93d01ca3705e1f, type: 3}
      propertyPath: m_AnchoredPosition.y
      value: 2.8983994
      objectReference: {fileID: 0}
    - target: {fileID: 1131140959341093737, guid: 97f3dcccc56a81c4bb93d01ca3705e1f, type: 3}
      propertyPath: m_Sprite
      value: 
      objectReference: {fileID: 5869917570690454702, guid: ce23744064841f345b831d4b8cb56ca9, type: 3}
    - target: {fileID: 1131140959341093737, guid: 97f3dcccc56a81c4bb93d01ca3705e1f, type: 3}
      propertyPath: m_Color.b
      value: 0.9921569
      objectReference: {fileID: 0}
    - target: {fileID: 1131140959341093737, guid: 97f3dcccc56a81c4bb93d01ca3705e1f, type: 3}
      propertyPath: m_Color.g
      value: 0.9921569
      objectReference: {fileID: 0}
    - target: {fileID: 1131140959341093737, guid: 97f3dcccc56a81c4bb93d01ca3705e1f, type: 3}
      propertyPath: m_Color.r
      value: 0.003921569
      objectReference: {fileID: 0}
    - target: {fileID: 1131140960409946514, guid: 97f3dcccc56a81c4bb93d01ca3705e1f, type: 3}
      propertyPath: m_SizeDelta.x
      value: -0.0040283
      objectReference: {fileID: 0}
    - target: {fileID: 1131140960409946514, guid: 97f3dcccc56a81c4bb93d01ca3705e1f, type: 3}
      propertyPath: m_AnchoredPosition.x
      value: 0.0019836426
      objectReference: {fileID: 0}
    - target: {fileID: 1131140960409946515, guid: 97f3dcccc56a81c4bb93d01ca3705e1f, type: 3}
      propertyPath: m_Sprite
      value: 
      objectReference: {fileID: 5848205605246110486, guid: ce23744064841f345b831d4b8cb56ca9, type: 3}
    - target: {fileID: 1131140960927698186, guid: 97f3dcccc56a81c4bb93d01ca3705e1f, type: 3}
      propertyPath: m_Value
      value: 100
      objectReference: {fileID: 0}
    - target: {fileID: 1131140960927698189, guid: 97f3dcccc56a81c4bb93d01ca3705e1f, type: 3}
      propertyPath: m_SizeDelta.x
      value: 543.99
      objectReference: {fileID: 0}
    - target: {fileID: 1131140960927698189, guid: 97f3dcccc56a81c4bb93d01ca3705e1f, type: 3}
      propertyPath: m_SizeDelta.y
      value: 50
      objectReference: {fileID: 0}
    - target: {fileID: 1131140960927698189, guid: 97f3dcccc56a81c4bb93d01ca3705e1f, type: 3}
      propertyPath: m_AnchoredPosition.x
      value: -652
      objectReference: {fileID: 0}
    - target: {fileID: 1131140960927698189, guid: 97f3dcccc56a81c4bb93d01ca3705e1f, type: 3}
      propertyPath: m_AnchoredPosition.y
      value: 464
      objectReference: {fileID: 0}
    m_RemovedComponents: []
  m_SourcePrefab: {fileID: 100100000, guid: 97f3dcccc56a81c4bb93d01ca3705e1f, type: 3}
--- !u!224 &5924074797432415448 stripped
RectTransform:
  m_CorrespondingSourceObject: {fileID: 1131140959044168072, guid: 97f3dcccc56a81c4bb93d01ca3705e1f, type: 3}
  m_PrefabInstance: {fileID: 6738533008610250064}
  m_PrefabAsset: {fileID: 0}
